{
  "project_info": {
    "project_number": "255689912920",
    "firebase_url": "https://diagonalenglish-4a532.firebaseio.com",
    "project_id": "diagonalenglish-4a532",
    "storage_bucket": "diagonalenglish-4a532.appspot.com"
  },
  "client": [
    {
      "client_info": {
        "mobilesdk_app_id": "1:255689912920:android:d66a8085cbcda69720d02d",
        "android_client_info": {
          "package_name": "com.diagonalenglishschool.diagonalenglish"
        }
      },
      "oauth_client": [
        {
          "client_id": "255689912920-qlj6562srqrlvhcklq7n7plfcrpve8b7.apps.googleusercontent.com",
          "client_type": 3
        }
      ],
      "api_key": [
        {
          "current_key": "AIzaSyCjoqqdUKEncvy30227BwkIj4OE6iUZwd0"
        }
      ],
      "services": {
        "appinvite_service": {
          "other_platform_oauth_client": [
            {
              "client_id": "255689912920-qlj6562srqrlvhcklq7n7plfcrpve8b7.apps.googleusercontent.com",
              "client_type": 3
            }
          ]
        }
      }
    }
  ],
  "configuration_version": "1"
}